%YAML 1.1
%TAG !u! tag:unity3d.com,2011:
--- !u!114 &11400000
MonoBehaviour:
  m_ObjectHideFlags: 0
  m_PrefabParentObject: {fileID: 0}
  m_PrefabInternal: {fileID: 0}
  m_GameObject: {fileID: 0}
  m_Enabled: 1
  m_EditorHideFlags: 0
  m_Script: {fileID: 11500000, guid: f0d98f5be51926f46bc797504da5ad22, type: 3}
  m_Name: tileset-util
  m_EditorClassIdentifier: 
  AtlasTexture: {fileID: 2800000, guid: 2d76c93a8c56a534f94103b61aade8f5, type: 3}
  TilePxSize: {x: 16, y: 16}
  SliceOffset: {x: 0, y: 0}
  SlicePadding: {x: 0, y: 0}
  BackgroundColor: {r: 0.8039216, g: 0.8039216, b: 0.8039216, a: 0.8039216}
  VisualTileSize: {x: 32, y: 32}
  VisualTilePadding: 1
  TileRowLength: 3
  m_tileViews: []
  m_tilesetWidth: 3
  m_tilesetHeight: 3
  m_brushes: []
  m_tiles:
  - uv:
      serializedVersion: 2
      x: 0
      y: 0.6666667
      width: 0.33333334
      height: 0.33333334
    collData:
      vertices: []
      type: 0
    paramContainer:
      m_paramList: []
    prefabData:
      prefab: {fileID: 1000012039137194, guid: b36170998c1eb0b4b99150d4f9e2908d, type: 2}
      offset: {x: 0, y: 0, z: 0}
      offsetMode: 0
      showTileWithPrefab: 1
  - uv:
      serializedVersion: 2
      x: 0.33333334
      y: 0.6666667
      width: 0.33333334
      height: 0.33333334
    collData:
      vertices: []
      type: 0
    paramContainer:
      m_paramList: []
    prefabData:
      prefab: {fileID: 0}
      offset: {x: 0, y: 0, z: 0}
      offsetMode: 0
      showTileWithPrefab: 0
  - uv:
      serializedVersion: 2
      x: 0.6666667
      y: 0.6666667
      width: 0.33333334
      height: 0.33333334
    collData:
      vertices: []
      type: 0
    paramContainer:
      m_paramList: []
    prefabData:
      prefab: {fileID: 0}
      offset: {x: 0, y: 0, z: 0}
      offsetMode: 0
      showTileWithPrefab: 0
  - uv:
      serializedVersion: 2
      x: 0
      y: 0.33333334
      width: 0.33333334
      height: 0.33333334
    collData:
      vertices: []
      type: 0
    paramContainer:
      m_paramList: []
    prefabData:
      prefab: {fileID: 0}
      offset: {x: 0, y: 0, z: 0}
      offsetMode: 0
      showTileWithPrefab: 0
  - uv:
      serializedVersion: 2
      x: 0.33333334
      y: 0.33333334
      width: 0.33333334
      height: 0.33333334
    collData:
      vertices: []
      type: 0
    paramContainer:
      m_paramList: []
    prefabData:
      prefab: {fileID: 0}
      offset: {x: 0, y: 0, z: 0}
      offsetMode: 0
      showTileWithPrefab: 0
  - uv:
      serializedVersion: 2
      x: 0.6666667
      y: 0.33333334
      width: 0.33333334
      height: 0.33333334
    collData:
      vertices: []
      type: 0
    paramContainer:
      m_paramList: []
    prefabData:
      prefab: {fileID: 0}
      offset: {x: 0, y: 0, z: 0}
      offsetMode: 0
      showTileWithPrefab: 0
  - uv:
      serializedVersion: 2
      x: 0
      y: 0
      width: 0.33333334
      height: 0.33333334
    collData:
      vertices: []
      type: 0
    paramContainer:
      m_paramList: []
    prefabData:
      prefab: {fileID: 0}
      offset: {x: 0, y: 0, z: 0}
      offsetMode: 0
      showTileWithPrefab: 0
  - uv:
      serializedVersion: 2
      x: 0.33333334
      y: 0
      width: 0.33333334
      height: 0.33333334
    collData:
      vertices: []
      type: 0
    paramContainer:
      m_paramList: []
    prefabData:
      prefab: {fileID: 0}
      offset: {x: 0, y: 0, z: 0}
      offsetMode: 0
      showTileWithPrefab: 0
  - uv:
      serializedVersion: 2
      x: 0.6666667
      y: 0
      width: 0.33333334
      height: 0.33333334
    collData:
      vertices: []
      type: 0
    paramContainer:
      m_paramList: []
    prefabData:
      prefab: {fileID: 0}
      offset: {x: 0, y: 0, z: 0}
      offsetMode: 0
      showTileWithPrefab: 0
  m_pixelsPerUnit: 100
  m_brushGroupNames:
  - Default
  - 
  - 
  - 
  - 
  - 
  - 
  - 
  - 
  - 
  - 
  - 
  - 
  - 
  - 
  - 
  - 
  - 
  - 
  - 
  - 
  - 
  - 
  - 
  - 
  - 
  - 
  - 
  - 
  - 
  - 
  - 
  m_brushGroupAutotilingMatrix: 01000000020000000400000008000000100000002000000040000000800000000001000000020000000400000008000000100000002000000040000000800000000001000000020000000400000008000000100000002000000040000000800000000001000000020000000400000008000000100000002000000040
